{
  "project_info": {
    "project_number": "174666107543",
    "project_id": "ug-realtimedatabase",
    "storage_bucket": "ug-realtimedatabase.appspot.com"
  },
  "client": [
    {
      "client_info": {
        "mobilesdk_app_id": "1:174666107543:android:f58488ebe1bc1c51aab7d2",
        "android_client_info": {
          "package_name": "net.bytesly.ug_realtimedatabase"
        }
      },
      "oauth_client": [
        {
          "client_id": "174666107543-0id2ckbn394do458ct46p49lik1kkr8p.apps.googleusercontent.com",
          "client_type": 3
        }
      ],
      "api_key": [
        {
          "current_key": "AIzaSyDr-q-zI3261oTVycwBaSCRXtuyrL0uJtk"
        }
      ],
      "services": {
        "appinvite_service": {
          "other_platform_oauth_client": [
            {
              "client_id": "174666107543-0id2ckbn394do458ct46p49lik1kkr8p.apps.googleusercontent.com",
              "client_type": 3
            }
          ]
        }
      }
    }
  ],
  "configuration_version": "1"
}